{
  "page": 1,
  "perPage": 15,
  "total": 30,
  "totalPages": 2,
  "data": [
    {
      "id": "e976b47a-4b65-4b82-986f-21c965c5f521",
      "company": {
        "name": "Entreprise Exemple 1",
        "siret": "12345678901234",
        "tva": "FR1234567890",
        "type": "SARL",
        "website": "https://www.entreprise-exemple-1.com"
      },
      "address": {
        "address": "123 Rue de l'Exemple",
        "postal": "75000",
        "city": "Paris",
        "country": "France"
      },
      "contact": {
        "name": "Jean Dupont",
        "email": "jean.dupont@entreprise-exemple-1.com",
        "tel": "+33123456789",
        "note": "Responsable des achats"
      },
      "status": {
        "isActive": true
      }
    },
    {
      "id": "f1533291-7559-419b-863e-6990e250c906",
      "company": {
        "name": "Entreprise Exemple 2",
        "siret": "23456789012345",
        "tva": "FR2345678901",
        "type": "SA",
        "website": "https://www.entreprise-exemple-2.com"
      },
      "address": {
        "address": "456 Avenue de la République",
        "postal": "69000",
        "city": "Lyon",
        "country": "France"
      },
      "contact": {
        "name": "Marie Martin",
        "email": "marie.martin@entreprise-exemple-2.com",
        "tel": "+33234567890",
        "note": "Directrice générale"
      },
      "status": {
        "isActive": true
      }
    },
    {
      "id": "4347435b-669d-439f-8352-656917946566",
      "company": {
        "name": "Entreprise Exemple 3",
        "siret": "34567890123456",
        "tva": "FR3456789012",
        "type": "SAS",
        "website": "https://www.entreprise-exemple-3.com"
      },
      "address": {
        "address": "789 Boulevard de la Victoire",
        "postal": "13000",
        "city": "Marseille",
        "country": "France"
      },
      "contact": {
        "name": "Paul Durand",
        "email": "paul.durand@entreprise-exemple-3.com",
        "tel": "+33345678901",
        "note": "Responsable marketing"
      },
      "status": {
        "isActive": true
      }
    },
    {
      "id": "60299683-1167-4776-9789-20644357360b",
      "company": {
        "name": "Entreprise Exemple 4",
        "siret": "45678901234567",
        "tva": "FR4567890123",
        "type": "EURL",
        "website": "https://www.entreprise-exemple-4.com"
      },
      "address": {
        "address": "101 Rue de la Paix",
        "postal": "33000",
        "city": "Bordeaux",
        "country": "France"
      },
      "contact": {
        "name": "Sophie Bernard",
        "email": "sophie.bernard@entreprise-exemple-4.com",
        "tel": "+33456789012",
        "note": "Responsable commerciale"
      },
      "status": {
        "isActive": true
      }
    },
    {
      "id": "2c158474-3918-4a30-9460-5779692413e8",
      "company": {
        "name": "Entreprise Exemple 5",
        "siret": "56789012345678",
        "tva": "FR5678901234",
        "type": "SNC",
        "website": "https://www.entreprise-exemple-5.com"
      },
      "address": {
        "address": "202 Avenue Jean Jaurès",
        "postal": "59000",
        "city": "Lille",
        "country": "France"
      },
      "contact": {
        "name": "Lucas Dubois",
        "email": "lucas.dubois@entreprise-exemple-5.com",
        "tel": "+33567890123",
        "note": "Responsable technique"
      },
      "status": {
        "isActive": true
      }
    },
    {
      "id": "3843766a-6848-4c9e-923e-560995a5611e",
      "company": {
        "name": "Entreprise Exemple 6",
        "siret": "67890123456789",
        "tva": "FR6789012345",
        "type": "SASU",
        "website": "https://www.entreprise-exemple-6.com"
      },
      "address": {
        "address": "303 Rue de la Liberté",
        "postal": "67000",
        "city": "Strasbourg",
        "country": "France"
      },
      "contact": {
        "name": "Emma Lefèvre",
        "email": "emma.lefevre@entreprise-exemple-6.com",
        "tel": "+33678901234",
        "note": "Responsable RH"
      },
      "status": {
        "isActive": true
      }
    },
    {
      "id": "6a50151c-990b-48b0-9089-62908214129d",
      "company": {
        "name": "Entreprise Exemple 7",
        "siret": "78901234567890",
        "tva": "FR7890123456",
        "type": "SARL",
        "website": "https://www.entreprise-exemple-7.com"
      },
      "address": {
        "address": "404 Boulevard de la République",
        "postal": "35000",
        "city": "Rennes",
        "country": "France"
      },
      "contact": {
        "name": "Marc Dupuis",
        "email": "marc.dupuis@entreprise-exemple-7.com",
        "tel": "+33789012345",
        "note": "Responsable financier"
      },
      "status": {
        "isActive": true
      }
    },
    {
      "id": "c2907312-3c79-4788-863d-209260757256",
      "company": {
        "name": "Entreprise Exemple 8",
        "siret": "89012345678901",
        "tva": "FR8901234567",
        "type": "SA",
        "website": "https://www.entreprise-exemple-8.com"
      },
      "address": {
        "address": "505 Avenue de la Gare",
        "postal": "38000",
        "city": "Grenoble",
        "country": "France"
      },
      "contact": {
        "name": "Laura Moreau",
        "email": "laura.moreau@entreprise-exemple-8.com",
        "tel": "+33890123456",
        "note": "Responsable logistique"
      },
      "status": {
        "isActive": true
      }
    },
    {
      "id": "4f8f554c-510e-4085-9b5c-61945243676d",
      "company": {
        "name": "Entreprise Exemple 9",
        "siret": "90123456789012",
        "tva": "FR9012345678",
        "type": "SAS",
        "website": "https://www.entreprise-exemple-9.com"
      },
      "address": {
        "address": "606 Rue de la Victoire",
        "postal": "44000",
        "city": "Nantes",
        "country": "France"
      },
      "contact": {
        "name": "Julien Mercier",
        "email": "julien.mercier@entreprise-exemple-9.com",
        "tel": "+33901234567",
        "note": "Responsable informatique"
      },
      "status": {
        "isActive": true
      }
    },
    {
      "id": "a1b2c3d4-5678-9101-1121-314151617181",
      "company": {
        "name": "Entreprise Exemple 10",
        "siret": "12345678901235",
        "tva": "FR1234567891",
        "type": "SARL",
        "website": "https://www.entreprise-exemple-10.com"
      },
      "address": {
        "address": "707 Boulevard de la Paix",
        "postal": "76000",
        "city": "Rouen",
        "country": "France"
      },
      "contact": {
        "name": "Clara Dubois",
        "email": "clara.dubois@entreprise-exemple-10.com",
        "tel": "+33123456780",
        "note": "Responsable communication"
      },
      "status": {
        "isActive": true
      }
    },
    {
      "id": "b2c3d4e5-6789-1011-1213-141516171819",
      "company": {
        "name": "Entreprise Exemple 11",
        "siret": "23456789012346",
        "tva": "FR2345678902",
        "type": "SA",
        "website": "https://www.entreprise-exemple-11.com"
      },
      "address": {
        "address": "808 Avenue de la République",
        "postal": "68000",
        "city": "Mulhouse",
        "country": "France"
      },
      "contact": {
        "name": "Thomas Lefèvre",
        "email": "thomas.lefevre@entreprise-exemple-11.com",
        "tel": "+33234567891",
        "note": "Responsable production"
      },
      "status": {
        "isActive": true
      }
    },
    {
      "id": "c3d4e5f6-7890-1112-1314-151617181920",
      "company": {
        "name": "Entreprise Exemple 12",
        "siret": "34567890123457",
        "tva": "FR3456789013",
        "type": "SAS",
        "website": "https://www.entreprise-exemple-12.com"
      },
      "address": {
        "address": "909 Boulevard de la Victoire",
        "postal": "13000",
        "city": "Aix-en-Provence",
        "country": "France"
      },
      "contact": {
        "name": "Pauline Durand",
        "email": "pauline.durand@entreprise-exemple-12.com",
        "tel": "+33345678902",
        "note": "Responsable qualité"
      },
      "status": {
        "isActive": true
      }
    },
    {
      "id": "d4e5f6a7-8901-1213-1415-161718192021",
      "company": {
        "name": "Entreprise Exemple 13",
        "siret": "45678901234568",
        "tva": "FR4567890124",
        "type": "EURL",
        "website": "https://www.entreprise-exemple-13.com"
      },
      "address": {
        "address": "1010 Rue de la Paix",
        "postal": "33000",
        "city": "Bordeaux",
        "country": "France"
      },
      "contact": {
        "name": "Sophie Bernard",
        "email": "sophie.bernard@entreprise-exemple-13.com",
        "tel": "+33456789013",
        "note": "Responsable commerciale"
      },
      "status": {
        "isActive": true
      }
    },
    {
      "id": "e5f6a7b8-9012-1314-1516-171819202122",
      "company": {
        "name": "Entreprise Exemple 14",
        "siret": "56789012345679",
        "tva": "FR5678901235",
        "type": "SNC",
        "website": "https://www.entreprise-exemple-14.com"
      },
      "address": {
        "address": "1111 Avenue Jean Jaurès",
        "postal": "59000",
        "city": "Lille",
        "country": "France"
      },
      "contact": {
        "name": "Lucas Dubois",
        "email": "lucas.dubois@entreprise-exemple-14.com",
        "tel": "+33567890124",
        "note": "Responsable technique"
      },
      "status": {
        "isActive": true
      }
    },
    {
      "id": "f6a7b8c9-0123-1415-1617-181920212223",
      "company": {
        "name": "Entreprise Exemple 15",
        "siret": "67890123456780",
        "tva": "FR6789012346",
        "type": "SASU",
        "website": "https://www.entreprise-exemple-15.com"
      },
      "address": {
        "address": "1212 Rue de la Liberté",
        "postal": "67000",
        "city": "Strasbourg",
        "country": "France"
      },
      "contact": {
        "name": "Emma Lefèvre",
        "email": "emma.lefevre@entreprise-exemple-15.com",
        "tel": "+33678901235",
        "note": "Responsable RH"
      },
      "status": {
        "isActive": true
      }
    }
  ]
}
