{
  "page": 2,
  "perPage": 15,
  "total": 20,
  "totalPages": 2,
  "data": [
    {
      "id": "a7b8c9d0-1234-1516-1718-192021222324",
      "company": {
        "name": "Entreprise Exemple 16",
        "siret": "78901234567891",
        "tva": "FR7890123457",
        "type": "SARL",
        "website": "https://www.entreprise-exemple-16.com"
      },
      "address": {
        "address": "1313 Boulevard de la République",
        "postal": "35000",
        "city": "Rennes",
        "country": "France"
      },
      "contact": {
        "name": "Marc Dupuis",
        "email": "marc.dupuis@entreprise-exemple-16.com",
        "tel": "+33789012346",
        "note": "Responsable financier"
      },
      "status": {
        "isActive": true
      }
    },
    {
      "id": "b8c9d0e1-2345-1617-1819-202122232425",
      "company": {
        "name": "Entreprise Exemple 17",
        "siret": "89012345678902",
        "tva": "FR8901234568",
        "type": "SA",
        "website": "https://www.entreprise-exemple-17.com"
      },
      "address": {
        "address": "1414 Avenue de la Gare",
        "postal": "38000",
        "city": "Grenoble",
        "country": "France"
      },
      "contact": {
        "name": "Laura Moreau",
        "email": "laura.moreau@entreprise-exemple-17.com",
        "tel": "+33890123457",
        "note": "Responsable logistique"
      },
      "status": {
        "isActive": true
      }
    },
    {
      "id": "c9d0e1f2-3456-1718-1920-212223242526",
      "company": {
        "name": "Entreprise Exemple 18",
        "siret": "90123456789013",
        "tva": "FR9012345679",
        "type": "SAS",
        "website": "https://www.entreprise-exemple-18.com"
      },
      "address": {
        "address": "1515 Rue de la Victoire",
        "postal": "44000",
        "city": "Nantes",
        "country": "France"
      },
      "contact": {
        "name": "Julien Mercier",
        "email": "julien.mercier@entreprise-exemple-18.com",
        "tel": "+33901234568",
        "note": "Responsable informatique"
      },
      "status": {
        "isActive": true
      }
    },
    {
      "id": "d0e1f2a3-4567-1819-2021-222324252627",
      "company": {
        "name": "Entreprise Exemple 19",
        "siret": "12345678901236",
        "tva": "FR1234567892",
        "type": "SARL",
        "website": "https://www.entreprise-exemple-19.com"
      },
      "address": {
        "address": "1616 Boulevard de la Paix",
        "postal": "76000",
        "city": "Rouen",
        "country": "France"
      },
      "contact": {
        "name": "Clara Dubois",
        "email": "clara.dubois@entreprise-exemple-19.com",
        "tel": "+33123456781",
        "note": "Responsable communication"
      },
      "status": {
        "isActive": true
      }
    },
    {
      "id": "e1f2a3b4-5678-1920-2122-232425262728",
      "company": {
        "name": "Entreprise Exemple 20",
        "siret": "23456789012347",
        "tva": "FR2345678903",
        "type": "SA",
        "website": "https://www.entreprise-exemple-20.com"
      },
      "address": {
        "address": "1717 Avenue de la République",
        "postal": "68000",
        "city": "Mulhouse",
        "country": "France"
      },
      "contact": {
        "name": "Thomas Lefèvre",
        "email": "thomas.lefevre@entreprise-exemple-20.com",
        "tel": "+33234567892",
        "note": "Responsable production"
      },
      "status": {
        "isActive": true
      }
    },
    {
      "id": "f2a3b4c5-6789-2021-2223-242526272829",
      "company": {
        "name": "Entreprise Exemple 21",
        "siret": "34567890123458",
        "tva": "FR3456789014",
        "type": "SAS",
        "website": "https://www.entreprise-exemple-21.com"
      },
      "address": {
        "address": "1818 Boulevard de la Victoire",
        "postal": "13000",
        "city": "Aix-en-Provence",
        "country": "France"
      },
      "contact": {
        "name": "Pauline Durand",
        "email": "pauline.durand@entreprise-exemple-21.com",
        "tel": "+33345678903",
        "note": "Responsable qualité"
      },
      "status": {
        "isActive": true
      }
    },
    {
      "id": "a3b4c5d6-7890-2122-2324-252627282930",
      "company": {
        "name": "Entreprise Exemple 22",
        "siret": "45678901234569",
        "tva": "FR4567890125",
        "type": "EURL",
        "website": "https://www.entreprise-exemple-22.com"
      },
      "address": {
        "address": "1919 Rue de la Paix",
        "postal": "33000",
        "city": "Bordeaux",
        "country": "France"
      },
      "contact": {
        "name": "Sophie Bernard",
        "email": "sophie.bernard@entreprise-exemple-22.com",
        "tel": "+33456789014",
        "note": "Responsable commerciale"
      },
      "status": {
        "isActive": true
      }
    },
    {
      "id": "b4c5d6e7-8901-2223-2425-262728293031",
      "company": {
        "name": "Entreprise Exemple 23",
        "siret": "56789012345670",
        "tva": "FR5678901236",
        "type": "SNC",
        "website": "https://www.entreprise-exemple-23.com"
      },
      "address": {
        "address": "2020 Avenue Jean Jaurès",
        "postal": "59000",
        "city": "Lille",
        "country": "France"
      },
      "contact": {
        "name": "Lucas Dubois",
        "email": "lucas.dubois@entreprise-exemple-23.com",
        "tel": "+33567890125",
        "note": "Responsable technique"
      },
      "status": {
        "isActive": true
      }
    },
    {
      "id": "c5d6e7f8-9012-2324-2526-272829303132",
      "company": {
        "name": "Entreprise Exemple 24",
        "siret": "67890123456781",
        "tva": "FR6789012347",
        "type": "SASU",
        "website": "https://www.entreprise-exemple-24.com"
      },
      "address": {
        "address": "2121 Rue de la Liberté",
        "postal": "67000",
        "city": "Strasbourg",
        "country": "France"
      },
      "contact": {
        "name": "Emma Lefèvre",
        "email": "emma.lefevre@entreprise-exemple-24.com",
        "tel": "+33678901236",
        "note": "Responsable RH"
      },
      "status": {
        "isActive": true
      }
    },
    {
      "id": "d6e7f8a9-0123-2425-2627-282930313233",
      "company": {
        "name": "Entreprise Exemple 25",
        "siret": "78901234567892",
        "tva": "FR7890123458",
        "type": "SARL",
        "website": "https://www.entreprise-exemple-25.com"
      },
      "address": {
        "address": "2222 Boulevard de la République",
        "postal": "35000",
        "city": "Rennes",
        "country": "France"
      },
      "contact": {
        "name": "Marc Dupuis",
        "email": "marc.dupuis@entreprise-exemple-25.com",
        "tel": "+33789012347",
        "note": "Responsable financier"
      },
      "status": {
        "isActive": true
      }
    },
    {
      "id": "e7f8a9b0-1234-2526-2728-293031323334",
      "company": {
        "name": "Entreprise Exemple 26",
        "siret": "89012345678903",
        "tva": "FR8901234569",
        "type": "SA",
        "website": "https://www.entreprise-exemple-26.com"
      },
      "address": {
        "address": "2323 Avenue de la Gare",
        "postal": "38000",
        "city": "Grenoble",
        "country": "France"
      },
      "contact": {
        "name": "Laura Moreau",
        "email": "laura.moreau@entreprise-exemple-26.com",
        "tel": "+33890123458",
        "note": "Responsable logistique"
      },
      "status": {
        "isActive": true
      }
    },
    {
      "id": "f8a9b0c1-2345-2627-2829-303132333435",
      "company": {
        "name": "Entreprise Exemple 27",
        "siret": "90123456789014",
        "tva": "FR9012345680",
        "type": "SAS",
        "website": "https://www.entreprise-exemple-27.com"
      },
      "address": {
        "address": "2424 Rue de la Victoire",
        "postal": "44000",
        "city": "Nantes",
        "country": "France"
      },
      "contact": {
        "name": "Julien Mercier",
        "email": "julien.mercier@entreprise-exemple-27.com",
        "tel": "+33901234569",
        "note": "Responsable informatique"
      },
      "status": {
        "isActive": true
      }
    },
    {
      "id": "a9b0c1d2-3456-2728-2930-313233343536",
      "company": {
        "name": "Entreprise Exemple 28",
        "siret": "12345678901237",
        "tva": "FR1234567893",
        "type": "SARL",
        "website": "https://www.entreprise-exemple-28.com"
      },
      "address": {
        "address": "2525 Boulevard de la Paix",
        "postal": "76000",
        "city": "Rouen",
        "country": "France"
      },
      "contact": {
        "name": "Clara Dubois",
        "email": "clara.dubois@entreprise-exemple-28.com",
        "tel": "+33123456782",
        "note": "Responsable communication"
      },
      "status": {
        "isActive": true
      }
    },
    {
      "id": "b0c1d2e3-4567-2829-3031-323334353637",
      "company": {
        "name": "Entreprise Exemple 29",
        "siret": "23456789012348",
        "tva": "FR2345678904",
        "type": "SA",
        "website": "https://www.entreprise-exemple-29.com"
      },
      "address": {
        "address": "2626 Avenue de la République",
        "postal": "68000",
        "city": "Mulhouse",
        "country": "France"
      },
      "contact": {
        "name": "Thomas Lefèvre",
        "email": "thomas.lefevre@entreprise-exemple-29.com",
        "tel": "+33234567893",
        "note": "Responsable production"
      },
      "status": {
        "isActive": true
      }
    },
    {
      "id": "c1d2e3f4-5678-2930-3132-333435363738",
      "company": {
        "name": "Entreprise Exemple 30",
        "siret": "34567890123459",
        "tva": "FR3456789015",
        "type": "SAS",
        "website": "https://www.entreprise-exemple-30.com"
      },
      "address": {
        "address": "2727 Boulevard de la Victoire",
        "postal": "13000",
        "city": "Aix-en-Provence",
        "country": "France"
      },
      "contact": {
        "name": "Pauline Durand",
        "email": "pauline.durand@entreprise-exemple-30.com",
        "tel": "+33345678904",
        "note": "Responsable qualité"
      },
      "status": {
        "isActive": true
      }
    }
  ]
}
